Task2. Data Analysis
…
#firstly, i removed all the not available values

na.omit(mydata)

## # A tibble: 1,543 x 13
##     ...1 `Open time`  Open  High   Low Close Volume `Close time`       
##    <dbl> <date>      <dbl> <dbl> <dbl> <dbl>  <dbl> <dttm>             
##  1     0 2017-08-17  4261. 4485. 4201. 4285.   795. 2017-08-17 23:59:59
##  2     1 2017-08-18  4285. 4372. 3939. 4108.  1200. 2017-08-18 23:59:59
##  3     2 2017-08-19  4108. 4185. 3850  4140.   381. 2017-08-19 23:59:59
##  4     3 2017-08-20  4121. 4211. 4033. 4086.   467. 2017-08-20 23:59:59
##  5     4 2017-08-21  4069. 4120. 3912. 4016    692. 2017-08-21 23:59:59
##  6     5 2017-08-22  4016  4105. 3400  4040    967. 2017-08-22 23:59:59
##  7     6 2017-08-23  4040  4266. 4014. 4114.  1001. 2017-08-23 23:59:59
##  8     7 2017-08-24  4147  4372. 4085. 4316.   787. 2017-08-24 23:59:59
##  9     8 2017-08-25  4316. 4454. 4247. 4281.   574. 2017-08-25 23:59:59
## 10     9 2017-08-26  4281. 4367  4212. 4337.   228. 2017-08-26 23:59:59
## # ... with 1,533 more rows, and 5 more variables: Quote asset volume <dbl>,
## #   Number of trades <dbl>, Taker buy base asset volume <dbl>,
## #   Taker buy quote asset volume <dbl>, Ignore <dbl>

#with command select,we take some specific colums

mydata%>%
select(`Open time`,Open,Close,Volume)

## # A tibble: 1,543 x 4
##    `Open time`  Open Close Volume
##    <date>      <dbl> <dbl>  <dbl>
##  1 2017-08-17  4261. 4285.   795.
##  2 2017-08-18  4285. 4108.  1200.
##  3 2017-08-19  4108. 4140.   381.
##  4 2017-08-20  4121. 4086.   467.
##  5 2017-08-21  4069. 4016    692.
##  6 2017-08-22  4016  4040    967.
##  7 2017-08-23  4040  4114.  1001.
##  8 2017-08-24  4147  4316.   787.
##  9 2017-08-25  4316. 4281.   574.
## 10 2017-08-26  4281. 4337.   228.
## # ... with 1,533 more rows
…
#another, if we want work only on the stock price in 2018

mydata%>%
filter(mydata$`Open time`>= as.Date("2018-01-01") & mydata$`Open time` <= ("2018-12-31"))

## # A tibble: 365 x 13
##     ...1 `Open time`   Open   High    Low  Close Volume `Close time`       
##    <dbl> <date>       <dbl>  <dbl>  <dbl>  <dbl>  <dbl> <dttm>             
##  1   137 2018-01-01  13716. 13819. 12750  13380   8610. 2018-01-01 23:59:59
##  2   138 2018-01-02  13382. 15473. 12890. 14675. 20078. 2018-01-02 23:59:59
##  3   139 2018-01-03  14690  15308. 14150  14920. 15906. 2018-01-03 23:59:59
##  4   140 2018-01-04  14920. 15280  13918. 15060. 21330. 2018-01-04 23:59:59
##  5   141 2018-01-05  15060. 17176. 14600  16960. 23251. 2018-01-05 23:59:59
##  6   142 2018-01-06  16960. 17143. 16011. 17070. 18571. 2018-01-06 23:59:59
##  7   143 2018-01-07  17070. 17100. 15610  16150. 12493. 2018-01-07 23:59:59
##  8   144 2018-01-08  16219. 16322. 12812  14903. 26601. 2018-01-08 23:59:59
##  9   145 2018-01-09  14903. 15500  14011. 14400  14315. 2018-01-09 23:59:59
## 10   146 2018-01-10  14401  14956. 13131. 14907. 17411. 2018-01-10 23:59:59
## # ... with 355 more rows, and 5 more variables: Quote asset volume <dbl>,
## #   Number of trades <dbl>, Taker buy base asset volume <dbl>,
## #   Taker buy quote asset volume <dbl>, Ignore <dbl>
…
